Title and weight,price,picture source
Moments Snacks Fruta para Perro - 60 Gr.,1.15 €/u,https://www.petsonic.com/15756-large_default/snacks-fruta-para-perro.jpg
Moments Snack Iberico para Perro - 60 Gr.,1.15 €/u,https://www.petsonic.com/15757-large_default/snack-iberico-para-perro.jpg
Moments Snack Pavo para Perro - 60 Gr.,1.15 €/u,https://www.petsonic.com/15758-large_default/snack-pavo-para-perro.jpg
Moments Snack Queso para Perro - 60 Gr.,1.15 €/u,https://www.petsonic.com/15759-large_default/snack-queso-para-perro.jpg
Moments Snack Pescado para Perro - 60 Gr.,1.15 €/u,https://www.petsonic.com/15760-large_default/snack-pescado-para-perro.jpg
Pet Munchies Snack Naturales Filetes de Pollo para Perro - 100 Gr.,3.42 €/u,https://www.petsonic.com/15790-large_default/snack-naturales-filetes-pollo-para-perro.jpg
Pet Munchies Snacks Naturales Tiras de Pollo para Perro - 100 Gr.,3.61 €/u,https://www.petsonic.com/15791-large_default/snacks-naturales-tiras-pollo-para-perro.jpg
Pet Munchies Snack Naturales Filetes de Pato para Perro - 80 Gr,3.42 €/u,https://www.petsonic.com/15793-large_default/snack-naturales-filetes-pato-para-perro.jpg
Pet Munchies Snacks Naturales Tiras de Pechuga Pato para Perro - 80 Gr,5.60 €/u,https://www.petsonic.com/15794-large_default/pet-munchies-snacks-naturales-tiras-pechuga-pato-para-perros.jpg
Pet Munchies Snacks Naturales Tiras de Venado para Perro - 70 Gr,3.80 €/u,https://www.petsonic.com/15795-large_default/snacks-naturales-tiras-venado-para-perro.jpg
Pet Munchies Snacks Naturales Bocaditos de Salmón para Perro - 90 Gr,3.42 €/u,https://www.petsonic.com/15826-large_default/snacks-naturales-bocaditos-salmon-para-perro.jpg
Pet Munchies Snack Naturales Filetes de Salmón para Perro - 90 Gr,3.42 €/u,https://www.petsonic.com/15827-large_default/snack-naturales-filetes-salmon-para-perro.jpg
Pet Munchies Snack Naturales Salmón Skin Chews Medium para Perro - 90 Gr,3.61 €/u,https://www.petsonic.com/15828-large_default/snack-naturales-salmon-skin-chews-medium-para-perro.jpg
Pet Munchies Snack Naturales Salmón Skin Chews Large para Perro - 125 Gr.,4.35 €/u,https://www.petsonic.com/15829-large_default/snack-naturales-salmon-skin-chews-large-para-perro.jpg
Trixie Caja Navidad para Perro - 1 Unidad.,8.99 €/u,https://www.petsonic.com/13925-large_default/caja-navidad-para-perro.jpg
"Lolo Pets Galleta Mini ""Pastel"" Frutos del Bosque para Perro - 40 gr",2.49 €/u,https://www.petsonic.com/13499-large_default/lolo-pets-galleta-mini-pastel-frutos-bosque-para-perros.jpg
"Lolo Pets Galleta Mini ""Pastel"" Chocolate y Frutos Secos para Perro - 40 gr",2.24 €/u,https://www.petsonic.com/13835-large_default/galleta-mini-pastel-chocolate-frutos-secos-para-perro.jpg
"Lolo Pets Galleta ""Pastel de Cumpleaños"" Carne y Verduras para Perro - 250 Gr.",3.99 €/u,https://www.petsonic.com/13481-large_default/galleta-pastel-cumpleanos-carne-verduras-para-perro.jpg
"Lolo Pets Galleta ""Pastel de Cumpleaños"" Chocolate y Frutos Secos para Perro - 250 Gr.",3.99 €/u,https://www.petsonic.com/13482-large_default/lolo-pets-galleta-pastel-cumpleanos-chocolate-frutos-secos-para-perros.jpg
"Lolo Pets Galleta ""Pastel de Cumpleaños"" Frutos del Bosque para Perro - 250 Gr.",3.99 €/u,https://www.petsonic.com/13483-large_default/galleta-pastel-cumpleanos-frutos-bosque-para-perro.jpg
"Lolo Pets Galleta ""Pastel  Love"" Carne y Verduras para Perro - 250 Gr.",3.99 €/u,https://www.petsonic.com/13484-large_default/galleta-pastel-love-carne-verduras-para-perro.jpg
"Lolo Pets Galleta ""Pastel  Love"" Chocolate y Frutos Secos para Perro - 250 Gr.",4.50 €/u,https://www.petsonic.com/13718-large_default/galleta-pastel-love-chocolate-frutos-secos-para-perro.jpg
"Lolo Pets Galleta ""Pastel de Love"" Frutos del Bosque para Perro - 250 Gr.",3.99 €/u,https://www.petsonic.com/13486-large_default/galleta-pastel-love-frutos-bosque-para-perro.jpg
"Lolo Pets Galleta ""Pastel "" Carne y Verduras para Perro - 250 Gr.",3.99 €/u,https://www.petsonic.com/13487-large_default/galleta-pastel-carne-verduras-para-perro.jpg
Moments Snacks Fruta para Perro - 60 Gr.,1.15 €/u,https://www.petsonic.com/15756-large_default/snacks-fruta-para-perro.jpg
Moments Snack Iberico para Perro - 60 Gr.,1.15 €/u,https://www.petsonic.com/15757-large_default/snack-iberico-para-perro.jpg
Moments Snack Pavo para Perro - 60 Gr.,1.15 €/u,https://www.petsonic.com/15758-large_default/snack-pavo-para-perro.jpg
Moments Snack Queso para Perro - 60 Gr.,1.15 €/u,https://www.petsonic.com/15759-large_default/snack-queso-para-perro.jpg
Moments Snack Pescado para Perro - 60 Gr.,1.15 €/u,https://www.petsonic.com/15760-large_default/snack-pescado-para-perro.jpg
Pet Munchies Snack Naturales Filetes de Pollo para Perro - 100 Gr.,3.42 €/u,https://www.petsonic.com/15790-large_default/snack-naturales-filetes-pollo-para-perro.jpg
Pet Munchies Snacks Naturales Tiras de Pollo para Perro - 100 Gr.,3.61 €/u,https://www.petsonic.com/15791-large_default/snacks-naturales-tiras-pollo-para-perro.jpg
Pet Munchies Snack Naturales Filetes de Pato para Perro - 80 Gr,3.42 €/u,https://www.petsonic.com/15793-large_default/snack-naturales-filetes-pato-para-perro.jpg
Pet Munchies Snacks Naturales Tiras de Pechuga Pato para Perro - 80 Gr,5.60 €/u,https://www.petsonic.com/15794-large_default/pet-munchies-snacks-naturales-tiras-pechuga-pato-para-perros.jpg
Pet Munchies Snacks Naturales Tiras de Venado para Perro - 70 Gr,3.80 €/u,https://www.petsonic.com/15795-large_default/snacks-naturales-tiras-venado-para-perro.jpg
Pet Munchies Snacks Naturales Bocaditos de Salmón para Perro - 90 Gr,3.42 €/u,https://www.petsonic.com/15826-large_default/snacks-naturales-bocaditos-salmon-para-perro.jpg
Pet Munchies Snack Naturales Filetes de Salmón para Perro - 90 Gr,3.42 €/u,https://www.petsonic.com/15827-large_default/snack-naturales-filetes-salmon-para-perro.jpg
Pet Munchies Snack Naturales Salmón Skin Chews Medium para Perro - 90 Gr,3.61 €/u,https://www.petsonic.com/15828-large_default/snack-naturales-salmon-skin-chews-medium-para-perro.jpg
Pet Munchies Snack Naturales Salmón Skin Chews Large para Perro - 125 Gr.,4.35 €/u,https://www.petsonic.com/15829-large_default/snack-naturales-salmon-skin-chews-large-para-perro.jpg
Trixie Caja Navidad para Perro - 1 Unidad.,8.99 €/u,https://www.petsonic.com/13925-large_default/caja-navidad-para-perro.jpg
"Lolo Pets Galleta Mini ""Pastel"" Frutos del Bosque para Perro - 40 gr",2.49 €/u,https://www.petsonic.com/13499-large_default/lolo-pets-galleta-mini-pastel-frutos-bosque-para-perros.jpg
"Lolo Pets Galleta Mini ""Pastel"" Chocolate y Frutos Secos para Perro - 40 gr",2.24 €/u,https://www.petsonic.com/13835-large_default/galleta-mini-pastel-chocolate-frutos-secos-para-perro.jpg
"Lolo Pets Galleta ""Pastel de Cumpleaños"" Carne y Verduras para Perro - 250 Gr.",3.99 €/u,https://www.petsonic.com/13481-large_default/galleta-pastel-cumpleanos-carne-verduras-para-perro.jpg
"Lolo Pets Galleta ""Pastel de Cumpleaños"" Chocolate y Frutos Secos para Perro - 250 Gr.",3.99 €/u,https://www.petsonic.com/13482-large_default/lolo-pets-galleta-pastel-cumpleanos-chocolate-frutos-secos-para-perros.jpg
"Lolo Pets Galleta ""Pastel de Cumpleaños"" Frutos del Bosque para Perro - 250 Gr.",3.99 €/u,https://www.petsonic.com/13483-large_default/galleta-pastel-cumpleanos-frutos-bosque-para-perro.jpg
"Lolo Pets Galleta ""Pastel  Love"" Carne y Verduras para Perro - 250 Gr.",3.99 €/u,https://www.petsonic.com/13484-large_default/galleta-pastel-love-carne-verduras-para-perro.jpg
"Lolo Pets Galleta ""Pastel  Love"" Chocolate y Frutos Secos para Perro - 250 Gr.",4.50 €/u,https://www.petsonic.com/13718-large_default/galleta-pastel-love-chocolate-frutos-secos-para-perro.jpg
"Lolo Pets Galleta ""Pastel de Love"" Frutos del Bosque para Perro - 250 Gr.",3.99 €/u,https://www.petsonic.com/13486-large_default/galleta-pastel-love-frutos-bosque-para-perro.jpg
"Lolo Pets Galleta ""Pastel "" Carne y Verduras para Perro - 250 Gr.",3.99 €/u,https://www.petsonic.com/13487-large_default/galleta-pastel-carne-verduras-para-perro.jpg
"Lolo Pets Galleta ""Pastel "" Chocolate y Frutos Secos para Perro - 250 Gr.",3.99 €/u,https://www.petsonic.com/13488-large_default/galleta-pastel-chocolate-frutos-secos-para-perro.jpg
"Lolo Pets Galleta ""Pastel Merry Christmas"" Carne y Verdura para Perro - 250 Gr.",4.94 €/u,https://www.petsonic.com/13626-large_default/galleta-pastel-merry-christmas-carne-verdura-para-perro.jpg
"Lolo Pets Galleta ""Pastel  Merry Christmas"" Chocolate y Frutos Secos para Perro - 250 Gr.",3.99 €/u,https://www.petsonic.com/13627-large_default/galleta-pastel-merry-christmas-chocolate-frutos-secos-para-perro.jpg
"Lolo Pets Galleta ""Pastel Merry Christmas"" Frutos del Bosque para Perro - 250 Gr.",3.99 €/u,https://www.petsonic.com/13628-large_default/galleta-pastel-merry-christmas-frutos-bosque-para-perro.jpg
Alpha Spirit Hueso Jamón para Perro - 1 Unidad.,0.99 €/u,https://www.petsonic.com/13262-large_default/hueso-jamon-amiguitos-para-perro.jpg
Alpha Spirit Snacks de Ternera en Monodosis para Perro - 1 Unidad.,0.99 €/u,https://www.petsonic.com/12023-large_default/alpha-spirit-snacks-ternera-monodosis-para-perros.jpg
Alpha Spirit Snacks de Pollo en Monodosis para Perro - 1 Unidad.,0.99 €/u,https://www.petsonic.com/12024-large_default/snacks-de-pollo-en-monodosis-para-perro.jpg
Alpha Spirit Snacks de Queso en Monodosis para Perro - 1 Unidad.,0.99 €/u,https://www.petsonic.com/12025-large_default/snacks-de-queso-en-monodosis-para-perro.jpg
Alpha Spirit Snacks de Higado en Monodosis para Perro - 1 Unidad.,0.99 €/u,https://www.petsonic.com/12026-large_default/snacks-de-higado-en-monodosis-para-perro.jpg
Alpha Spirit Snacks de Pescado en Monodosis para Perro - 1 Unidad.,0.99 €/u,https://www.petsonic.com/12027-large_default/snacks-de-pescado-en-monodosis-para-perro.jpg
Alpha Spirit Snacks de Pato en Monodosis para Perro - 1 Unidad.,0.79 €/u,https://www.petsonic.com/12028-large_default/snacks-de-pato-en-monodosis-para-perro.jpg
Alpha Spirit Snacks de Cordero en Monodosis para Perro - 16 Unidades,0.99 €/u,https://www.petsonic.com/12029-large_default/snacks-de-cordero-en-monodosis-para-perro.jpg
Alpha Spirit Sticks de Pollo en Monodosis para Perro - 16 Unidades,2.99 €/u,https://www.petsonic.com/12047-large_default/sticks-de-pollo-en-monodosis-para-perro.jpg
Alpha Spirit Sticks de Ternera en Monodosis para Perro - 16 barritas,2.99 €/u,https://www.petsonic.com/12046-large_default/sticks-de-ternera-en-monodosis-para-perro.jpg
Alpha Spirit Sticks de Higado en Monodosis para Perro - 16 Unidades,2.99 €/u,https://www.petsonic.com/12049-large_default/sticks-dehigado-en-monodosis-para-perro.jpg
Alpha Spirit Sticks de Pato en Monodosis para Perro - 16 Unidades,2.99 €/u,https://www.petsonic.com/12050-large_default/sticks-de-pato-en-monodosis-para-perro.jpg
Alpha Spirit Sticks de Cordero en Monodosis para Perro - 16 Unidades,2.99 €/u,https://www.petsonic.com/12051-large_default/sticks-de-cordero-en-monodosis-para-perro.jpg
Alpha Spirit Sticks de Queso en Monodosis para Perro - 1 Unidad.,2.99 €/u,https://www.petsonic.com/12048-large_default/sticks-de-queso-en-monodosis-para-perro.jpg
Alpha Spirit Stick de Pescado en Monodosis para Perro - 16 Unidades,2.99 €/u,https://www.petsonic.com/13920-large_default/stick-pescado-monodosis-para-perro.jpg
Alpha Spirit Snacks Pescado Blanco para Perro - 60 Gr.,1.99 €/u,https://www.petsonic.com/13857-large_default/snacks-pescado-blanco-para-perro.jpg
Alpha Spirit Snack Tacos de Atún para Perro - 80 Gr,1.99 €/u,https://www.petsonic.com/13859-large_default/snack-tacos-atun-para-perro.jpg
hobbit Alf Barritas Redonda de Ternera para Perro - 400 Gr.,4.99 €/u,https://www.petsonic.com/15277-large_default/hobbit-alf-barritas-redonda-ternera-para-perros.jpg
hobbit Alf Barritas Redonda de Ternera para Perro - 900 Gr.,8.99 €/u,https://www.petsonic.com/15277-large_default/hobbit-alf-barritas-redonda-ternera-para-perros.jpg
hobbit Alf Barritas Redonda de Cordero para Perro - 400 Gr.,5.49 €/u,https://www.petsonic.com/15278-large_default/hobbit-alf-barritas-redonda-cordero-para-perros.jpg
hobbit Alf Barritas Redonda de Cordero para Perro - 900 Gr.,8.99 €/u,https://www.petsonic.com/15278-large_default/hobbit-alf-barritas-redonda-cordero-para-perros.jpg
hobbit Alf Barritas Redonda de Pollo para Perro - 400 Gr.,4.99 €/u,https://www.petsonic.com/15281-large_default/hobbit-alf-barritas-redonda-pollo-para-perros.jpg
hobbit Alf Barritas Redonda de Pollo para Perro - 900 Gr.,7.64 €/u,https://www.petsonic.com/15281-large_default/hobbit-alf-barritas-redonda-pollo-para-perros.jpg
hobbit Alf Mini Huesitos Tiernos Mix para Perros - 500 Gr.,3.79 €/u,https://www.petsonic.com/15886-large_default/hobbit-alf-mini-huesitos-tiernos-mix-para-perros.jpg
Nayeco Snack Toffy Salmón para Perro - 250 Gr.,2.99 €/u,https://www.petsonic.com/15888-large_default/nayeco-snack-toffy-salmon-para-perros.jpg
Nayeco Snack Toffy Pollo para Perro - 75 Gr.,2.99 €/u,https://www.petsonic.com/11042-large_default/nayeco-snack-toffy-pollo-para-perros.jpg
Nayeco Snack Toffy Cordero para Perro - 75 Gr.,2.99 €/u,https://www.petsonic.com/11044-large_default/nayeco-snack-toffy-cordero-para-perros.jpg
Nayeco Snack Toffy Surtido para Perro - 250 Gr.,2.99 €/u,https://www.petsonic.com/15880-large_default/nayeco-snack-toffy-surtido-para-perros.jpg
Nayeco Barrita de Cordero - 500 Gr.,4.49 €/u,https://www.petsonic.com/15887-large_default/nayeco-barrita-cordero-para-perros.jpg
Delidog Delidog Barritas de Pollo - 800 Gr.,7.99 €/u,https://www.petsonic.com/14047-large_default/delidog-barritas-pollo-para-perros.jpg
Delidog Delidog Barritas de Buey - 800 Gr.,7.99 €/u,https://www.petsonic.com/14048-large_default/delidog-barritas-buey-para-perros.jpg
Delidog Delidog Barritas de Salmón - 800 Gr.,7.99 €/u,https://www.petsonic.com/14049-large_default/delidog-barritas-salmon-para-perros.jpg
Delidog Delidog Barritas de Cordero - 800 Gr.,7.99 €/u,https://www.petsonic.com/14050-large_default/delidog-barritas-cordero-para-perros.jpg
Delidog Delidog Barritas Grain Free - 800 Gr.,7.99 €/u,https://www.petsonic.com/14061-large_default/delidog-barritas-grain-free-para-perros.jpg
hobbit Alf Bocaditos Tiernos de Salmón para Perro - 1 Unidad.,1.49 €/u,https://www.petsonic.com/11081-large_default/hobbit-alf-bocaditos-tiernos-salmon-para-perros.jpg
hobbit Alf Bocaditos Tiernos de Salmón para Perro - 16 Unidades,18.95 €/u,https://www.petsonic.com/11081-large_default/hobbit-alf-bocaditos-tiernos-salmon-para-perros.jpg
hobbit Alf Estrellas Tiernas de Salmón y Queso para Perro - 1 Unidad.,1.42 €/u,https://www.petsonic.com/11078-large_default/hobbit-alf-estrellas-tiernas-salmon-queso-para-perros.jpg
hobbit Alf Estrellas Tiernas de Salmón y Queso para Perro - 16 Unidades,18.95 €/u,https://www.petsonic.com/11078-large_default/hobbit-alf-estrellas-tiernas-salmon-queso-para-perros.jpg
hobbit Alf Estrellita Tiernas de Salmón para Perro - 1 Unidad.,1.49 €/u,https://www.petsonic.com/11079-large_default/hobbit-alf-estrellita-tiernas-salmon-para-perros.jpg
hobbit Alf Estrellita Tiernas de Salmón para Perro - 16 Unidades,18.95 €/u,https://www.petsonic.com/11079-large_default/hobbit-alf-estrellita-tiernas-salmon-para-perros.jpg
hobbit Alf Estrellas Tiernas de Avestruz para Perro - 1 Unidad.,1.49 €/u,https://www.petsonic.com/11080-large_default/hobbit-alf-estrellas-tiernas-avestruz-para-perros.jpg
hobbit Alf Estrellas Tiernas de Avestruz para Perro - 16 Unidades,18.95 €/u,https://www.petsonic.com/11080-large_default/hobbit-alf-estrellas-tiernas-avestruz-para-perros.jpg
hobbit Alf Estrellas Tiernas de Ganso para Perro - 1 Unidad.,1.49 €/u,https://www.petsonic.com/12040-large_default/hobbit-alf-estrellas-tiernas-ganso-para-perros.jpg
hobbit Alf Estrellas Tiernas de Ganso para Perro - 16 Unidades,13.90 €/u,https://www.petsonic.com/12040-large_default/hobbit-alf-estrellas-tiernas-ganso-para-perros.jpg
hobbit Alf Bocaditos Tiernos de Carne de Caza para Perros - 1 Unidad.,1.42 €/u,https://www.petsonic.com/12041-large_default/hobbit-alf-bocaditos-tiernos-carne-caza-para-perros.jpg
hobbit Alf Bocaditos Tiernos de Carne de Caza para Perros - 16 Unidades,18.95 €/u,https://www.petsonic.com/12041-large_default/hobbit-alf-bocaditos-tiernos-carne-caza-para-perros.jpg
hobbit Alf Fruit Mix para Perro - 1 Unidad.,1.79 €/u,https://www.petsonic.com/12039-large_default/hobbit-alf-fruit-mix-para-perro.jpg
hobbit Alf Fruit Mix para Perro - 16 Unidades,18.95 €/u,https://www.petsonic.com/12039-large_default/hobbit-alf-fruit-mix-para-perro.jpg
hobbit Alf Snack Huesitos Tiernos para Perros - Pollo,1.89 €/u,https://www.petsonic.com/13861-large_default/hobbit-alf-snack-huesitos-tiernos-para-perros.jpg
hobbit Alf Snack Huesitos Tiernos para Perros - Cordero,1.89 €/u,https://www.petsonic.com/13861-large_default/hobbit-alf-snack-huesitos-tiernos-para-perros.jpg
hobbit Alf Palitos Tiernos de Ternera para Perro - 13 Unidades.,2.99 €/u,https://www.petsonic.com/5863-large_default/hobbit-alf-palitos-tiernos-ternera-para-perros.jpg
hobbit Alf Hueso Piel con Fluor para Perro - 13 cm,1.89 €/u,https://www.petsonic.com/14022-large_default/hobbit-alf-hueso-piel-fluor-para-perros.jpg
hobbit Alf Hueso Piel con Fluor para Perro - 25 cm,5.99 €/u,https://www.petsonic.com/14022-large_default/hobbit-alf-hueso-piel-fluor-para-perros.jpg
hobbit Alf Hueso Piel Sabor Barbacoa para Perro - 13 cm,1.99 €/u,https://www.petsonic.com/14023-large_default/hobbit-alf-hueso-piel-sabor-barbacoa-para-perros.jpg
hobbit Alf Hueso de Piel Sabor Chocolate para Perro - 13 cm,1.99 €/u,https://www.petsonic.com/14024-large_default/hobbit-alf-hueso-piel-sabor-chocolate-para-perros.jpg
hobbit Alf Nudillo de Ternera Calcio para Perro - 2 Unidades,0.99 €/u,https://www.petsonic.com/14025-large_default/hobbit-alf-nudillo-ternera-calcio-para-perros.jpg
hobbit Alf Nudillo de Ternera Ahumado para Perro - 2 Unidades,0.79 €/u,https://www.petsonic.com/14026-large_default/hobbit-alf-nudillo-ternera-ahumado-para-perros.jpg
hobbit Alf Cañailla de Jamón para Perro - 2 Unidades,0.99 €/u,https://www.petsonic.com/14027-large_default/hobbit-alf-canailla-jamon-para-perros.jpg
hobbit Alf Mini Hueso Piel Fluor para Perros - 10 Unidades.,6.99 €/u,https://www.petsonic.com/14030-large_default/hobbit-alf-mini-hueso-piel-fluor-para-perros.jpg
hobbit Alf Hueso Calcio con Pollo para Perro - 100 Gr.,2.49 €/u,https://www.petsonic.com/14031-large_default/hobbit-alf-hueso-calcio-pollo-para-perros.jpg
hobbit Alf Filetes de pollo y Pato para Perro - 100 Gr.,2.99 €/u,https://www.petsonic.com/14032-large_default/hobbit-alf-filetes-pollo-pato-para-perros.jpg
hobbit Alf Huesitos Puppy con Pollo para Perro - 100 Gr.,2.49 €/u,https://www.petsonic.com/14034-large_default/hobbit-alf-huesitos-puppy-pollo-para-perros.jpg
hobbit Alf Muslitos de Pollo y Calcio para Perro - 100 Gr.,2.49 €/u,https://www.petsonic.com/11056-large_default/hobbit-alf-muslitos-pollo-calcio-para-perros.jpg
hobbit Alf Snack Pescaditos con Pollo para Perro - 100 Gr.,2.99 €/u,https://www.petsonic.com/11137-large_default/hobbit-alf-snack-pescaditos-pollo-para-perros.jpg
Natural Horn Asta de Ciervo para Perro - S,4.49 €/u,https://www.petsonic.com/11248-large_default/natural-horn-asta-ciervo-para-perros.jpg
Natural Horn Asta de Ciervo para Perro - M,6.49 €/u,https://www.petsonic.com/11248-large_default/natural-horn-asta-ciervo-para-perros.jpg
Natural Horn Asta de Ciervo para Perro - L,11.65 €/u,https://www.petsonic.com/11248-large_default/natural-horn-asta-ciervo-para-perros.jpg
Natural Horn Asta de Ciervo para Perro - XL,16.95 €/u,https://www.petsonic.com/11248-large_default/natural-horn-asta-ciervo-para-perros.jpg
Natural Horn Asta de Ciervo para Perro - XXL,18.99 €/u,https://www.petsonic.com/11248-large_default/natural-horn-asta-ciervo-para-perros.jpg
hobbit Alf Rosco Piel Fluor para Perro - 1 Unidad.,1.99 €/u,https://www.petsonic.com/14035-large_default/hobbit-alf-rosco-piel-fluor-para-perros.jpg
hobbit Alf Hueso Jamón para Perro - Talla Unica,1.39 €/u,https://www.petsonic.com/14036-large_default/hobbit-alf-hueso-jamon-para-perros.jpg
 Hueso de Ternera para Perro - 30 cm,4.79 €/u,https://www.petsonic.com/12790-large_default/hueso-ternera-para-perro.jpg
 Hueso de Ternera para Perro - 45 cm,4.99 €/u,https://www.petsonic.com/12790-large_default/hueso-ternera-para-perro.jpg
hobbit Alf Hueso de Calcio Corto para Perro - 1 Unidad.,1.49 €/u,https://www.petsonic.com/14037-large_default/hobbit-alf-hueso-calcio-corto-para-perros.jpg
hobbit Alf Hueso Ternera con Calcio  - 1 Unidad.,2.99 €/u,https://www.petsonic.com/14038-large_default/hobbit-alf-hueso-ternera-calcio-para-perros.jpg
hobbit Alf Hueso Ternera Ahumado para Perro - 1 Unidad.,2.84 €/u,https://www.petsonic.com/9578-large_default/hobbit-alf-hueso-ternera-ahumado-para-perros.jpg
wuapu Huesos Piel Prensada para Perro - 2 x 8 cm,1.39 €/u,https://www.petsonic.com/12999-large_default/huesos-piel-prensada-para-perro.jpg
wuapu Huesos Piel Prensada para Perro - 21.5 cm,3.69 €/u,https://www.petsonic.com/12999-large_default/huesos-piel-prensada-para-perro.jpg
wuapu Huesos Piel Prensada para Perro - 27 cm,4.08 €/u,https://www.petsonic.com/12999-large_default/huesos-piel-prensada-para-perro.jpg
wuapu Huesos Piel Prensada para Perro - 32 cm,5.69 €/u,https://www.petsonic.com/12999-large_default/huesos-piel-prensada-para-perro.jpg
The Company Of Animals Huesos Marrowbone  Nylon Rellenos para Perro - 9 cm,3.32 €/u,https://www.petsonic.com/14039-large_default/the-company-of-animals-huesos-marrowbone-nylon-rellenos-para-perros.jpg
The Company Of Animals Huesos Marrowbone  Nylon Rellenos para Perro - 11.5 cm,4.83 €/u,https://www.petsonic.com/14039-large_default/the-company-of-animals-huesos-marrowbone-nylon-rellenos-para-perros.jpg
The Company Of Animals Huesos Marrowbone  Nylon Rellenos para Perro - 13.5 cm,6.99 €/u,https://www.petsonic.com/14039-large_default/the-company-of-animals-huesos-marrowbone-nylon-rellenos-para-perros.jpg
The Company Of Animals Huesos Marrowbone  Nylon Rellenos para Perro - 19 cm,10.28 €/u,https://www.petsonic.com/14039-large_default/the-company-of-animals-huesos-marrowbone-nylon-rellenos-para-perros.jpg
The Company Of Animals Huesos Marrowbone  Nylon Rellenos para Perro - 23 cm,13.21 €/u,https://www.petsonic.com/14039-large_default/the-company-of-animals-huesos-marrowbone-nylon-rellenos-para-perros.jpg
TASTY BONE Hueso Nylon Sabores Gourmet para Perro - Pollo,5.99 €/u,https://www.petsonic.com/11954-large_default/tasty-bone-hueso-nylon-sabores-gourmet-para-perros.jpg
TASTY BONE Hueso Nylon Sabores Gourmet para Perro - Faisan,5.69 €/u,https://www.petsonic.com/11954-large_default/tasty-bone-hueso-nylon-sabores-gourmet-para-perros.jpg
TASTY BONE Hueso Nylon Sabores Gourmet para Perro - Salmón,5.69 €/u,https://www.petsonic.com/11954-large_default/tasty-bone-hueso-nylon-sabores-gourmet-para-perros.jpg
TASTY BONE Hueso Nylon Sabores Gourmet para Perro - Langostino a la Barbacoa,5.69 €/u,https://www.petsonic.com/11954-large_default/tasty-bone-hueso-nylon-sabores-gourmet-para-perros.jpg
TASTY BONE Hueso Nylon Sabores para Perro Toy - Pollo,4.89 €/u,https://www.petsonic.com/10960-large_default/tasty-bone-hueso-nylon-sabores-toy-para-perros.jpg
TASTY BONE Hueso Nylon Sabores para Perro Toy - Ternera.,4.89 €/u,https://www.petsonic.com/10960-large_default/tasty-bone-hueso-nylon-sabores-toy-para-perros.jpg
TASTY BONE Hueso Nylon Sabores para Perro Toy - Cordero,4.89 €/u,https://www.petsonic.com/10960-large_default/tasty-bone-hueso-nylon-sabores-toy-para-perros.jpg
hobbit Alf Orejas de Cerda Extra para Perro - 5 Unidades.,8.47 €/u,https://www.petsonic.com/14041-large_default/hobbit-alf-orejas-cerda-extra-para-perros.jpg
hobbit Alf Orejas de Cerda Extra para Perro - 25 Unidades,29.25 €/u,https://www.petsonic.com/14041-large_default/hobbit-alf-orejas-cerda-extra-para-perros.jpg
hobbit Alf Oreja de Cerdo - 1 Unidad.,1.42 €/u,https://www.petsonic.com/14042-large_default/hobbit-alf-oreja-cerdo-para-perros.jpg
hobbit Alf Oreja de Vaca Deshidratada para Perro - 1 Unidad.,0.99 €/u,https://www.petsonic.com/14043-large_default/hobbit-alf-oreja-vaca-deshidratada-para-perros.jpg
Trixie Zapato Piel Masticable para Perro (10 unidades) - 12 cm,6.90 €/u,https://www.petsonic.com/14044-large_default/trixie-zapato-piel-masticable-10-unidades-para-perros.jpg
hobbit Alf Tendón de Cuero para Perro - 100 Gr.,2.99 €/u,https://www.petsonic.com/14029-large_default/hobbit-alf-tendon-cuero-para-perros.jpg
hobbit Alf Tendón de Cuero para Perro - 1 Kg.,12.99 €/u,https://www.petsonic.com/14029-large_default/hobbit-alf-tendon-cuero-para-perros.jpg
hobbit Alf Pezuña de Ternera Rellena para Perro - 1 Unidad.,1.49 €/u,https://www.petsonic.com/8214-large_default/hobbit-alf-pezuna-ternera-rellena-para-perros.jpg
hobbit Alf Nervio de Cerdo Trenzado para Perro - 20 cm,1.99 €/u,https://www.petsonic.com/14033-large_default/nervio-cerdo-trenzado-para-perro.jpg
hobbit Alf Nervio de Toro 15 cm para Perro - 10 Unidades.,12.23 €/u,https://www.petsonic.com/14045-large_default/hobbit-alf-nervio-toro-15-cm-para-perros.jpg
hobbit Alf Nervio de Toro 15 cm para Perro - 40 Unidades.,41.99 €/u,https://www.petsonic.com/14045-large_default/hobbit-alf-nervio-toro-15-cm-para-perros.jpg
hobbit Alf Puntas de Nervio de Toro - 500 Gr.,9.99 €/u,https://www.petsonic.com/15881-large_default/hobbit-alf-puntas-nervio-toro-para-perros.jpg
hobbit Alf Nervio de Toro 20cm para Perros - 7 Unidades.,15.94 €/u,https://www.petsonic.com/15883-large_default/hobbit-alf-nervio-toro-20cm-para-perros.jpg
hobbit Alf Nervio de Toro 60-70cm para Perro - 1 Unidad.,5.99 €/u,https://www.petsonic.com/15884-large_default/hobbit-alf-nervio-toro-60-70cm-para-perros.jpg
hobbit Alf Nervio de Toro 60-70cm para Perro - Pack 10 unidades,44.99 €/u,https://www.petsonic.com/15884-large_default/hobbit-alf-nervio-toro-60-70cm-para-perros.jpg
Dimac Cigarrillos Colores de Piel para Perro - 100 unidades,5.19 €/u,https://www.petsonic.com/15885-large_default/dimac-cigarrillos-colores-piel-para-perros.jpg
Bravo Snack de Piel para Perro - 4 Unidades,9.44 €/u,https://www.petsonic.com/10104-large_default/bravo-snack-piel-para-perros.jpg
Bravo Snack Piel Surtido para Perro - 7 Unidades.,10.34 €/u,https://www.petsonic.com/10105-large_default/bravo-snack-piel-surtido-para-perros.jpg
Trixie Palitos de Piel para Perro 100 unidades - Ø 5 a 6 mm,7.99 €/u,https://www.petsonic.com/14046-large_default/trixie-palitos-piel-100-unidades-para-perros.jpg
Trixie Palitos de Piel para Perro 100 unidades - Ø 7 a 8 mm,9.49 €/u,https://www.petsonic.com/14046-large_default/trixie-palitos-piel-100-unidades-para-perros.jpg
Trixie Palitos de Piel para Perro 100 unidades - Ø 9 a 10 mm,15.49 €/u,https://www.petsonic.com/14046-large_default/trixie-palitos-piel-100-unidades-para-perros.jpg
hobbit Alf Tira de Tendón para Perro - 1 Unidad.,1.49 €/u,https://www.petsonic.com/14051-large_default/hobbit-alf-tira-tendon-para-perros.jpg
hobbit Alf Tendón Extra 20cm para Perro - 1 Unidad.,1.59 €/u,https://www.petsonic.com/14052-large_default/hobbit-alf-tendon-extra-20cm-para-perros.jpg
Trixie Huesos Prensados de Arroz para Perro - 2 Unidades,2.19 €/u,https://www.petsonic.com/14053-large_default/trixie-huesos-prensados-arroz-para-perros.jpg
Trixie Rollito de Tripa Relleno de Yogur para Perro - 100 Unidades,62.69 €/u,https://www.petsonic.com/14054-large_default/trixie-rollito-tripa-relleno-yogur-para-perros.jpg
Trixie Snack-Premio Paté Hígado - 110 Gr.,3.00 €/u,https://www.petsonic.com/14056-large_default/trixie-snack-premio-pate-higado-para-perros.jpg
Trixie Snack Paté de Bacon para Perro - 110 Gr.,3.49 €/u,https://www.petsonic.com/14057-large_default/snack-pate-bacon-para-perro.jpg
Trixie Snack Paté de Salmón para Perro - 110 Gr.,3.49 €/u,https://www.petsonic.com/14058-large_default/snack-pate-salmon-para-perro.jpg
Trixie Snacks Vitaminados Sabor Yogur para Perro - 75 Gr.,1.79 €/u,https://www.petsonic.com/8411-large_default/trixie-snacks-vitaminados-sabor-yogur-para-perros.jpg
Trixie Tableta Chocolate para Perros - 100 Gr.,1.34 €/u,https://www.petsonic.com/14059-large_default/trixie-tableta-chocolate-para-perros.jpg
Trixie Tableta Chocolate Blanco para Perros - 100 Gr.,1.49 €/u,https://www.petsonic.com/14060-large_default/trixie-tableta-chocolate-blanco-para-perros.jpg
Trixie Snacks Tiras de Pollo Deshidratado para Perro - 100 Gr.,3.00 €/u,https://www.petsonic.com/8406-large_default/trixie-snacks-tiras-pollo-deshidratado-para-perros.jpg
Trixie Snack Pollo y Merluza para Perro - 75 Gr.,2.19 €/u,https://www.petsonic.com/12125-large_default/snack-pollo-merluza-para-perro.jpg
Trixie Snacks Crispy Duck para Perro - 100 Gr.,3.99 €/u,https://www.petsonic.com/12124-large_default/snacks-cripspy-duck-para-perro.jpg
Trixie Snakcs Pollo y Plátano para Perro - 100 Gr.,3.05 €/u,https://www.petsonic.com/12403-large_default/snakcs-pollo-platano-para-perro.jpg
Trixie Snack Pollo y Queso para Perro - 100 Gr.,2.99 €/u,https://www.petsonic.com/12404-large_default/snack-pollo-queso-para-perro.jpg
Trixie Snacks Bites Pato para Perro - 80 Gr,2.19 €/u,https://www.petsonic.com/12447-large_default/snacks-bites-pato-para-perro.jpg
Trixie Snack Pato y Arroz para Perro - 80 Gr,2.49 €/u,https://www.petsonic.com/12406-large_default/snack-pato-arroz-para-perro.jpg
Trixie Snack Pato para Perro - 80 Gr,2.99 €/u,https://www.petsonic.com/12405-large_default/snack-pato-para-perro.jpg
Trixie Snacks Chickies Pollo para Perro - 100 Gr.,2.99 €/u,https://www.petsonic.com/15464-large_default/snacks-chickies-pollo-para-perro.jpg
Trixie Snack Happy Stripes Ternera para Perro - 500 Gr.,5.00 €/u,https://www.petsonic.com/13797-large_default/snack-happy-stripes-ternera-para-perro.jpg
Bravo Huesos Delibones para Perro - 7 cm,3.24 €/u,https://www.petsonic.com/13301-large_default/huesos-delibones-para-perro.jpg
Bravo Huesos Delibones para Perro - 11 cm,3.49 €/u,https://www.petsonic.com/13301-large_default/huesos-delibones-para-perro.jpg
Fish4Dogs Super Star Snacks Adiestramiento para Perro. - 75 Gr.,3.49 €/u,https://www.petsonic.com/14062-large_default/fish4dogs-super-star-snacks-adiestramiento-para-perros.jpg
